…
När vi är klara med ett recept använder vi funktionen `prep` för att
preppa data.

    recept <- recipe(species ~ ., data = train) %>% 
      step_center(all_numeric(), -all_outcomes()) %>%
      step_scale(all_numeric(), -all_outcomes()) %>%
      prep()

För att få ut data från receptet använder vi funktionen `juice()`.

    train_recipe <- juice(recept)

    train_recipe

    ## # A tibble: 200 x 7
    ##    island bill_length_mm bill_depth_mm flipper_length_… body_mass_g sex  
    ##    <fct>           <dbl>         <dbl>            <dbl>       <dbl> <fct>
    ##  1 Torge…         -0.671        0.453            -0.397    -1.16    fema…
    ##  2 Torge…         -0.927        0.350            -1.39     -0.702   fema…
    ##  3 Torge…         -1.35         0.350            -1.10     -0.610   fema…
    ##  4 Torge…         -0.267        1.85             -0.255     0.378   male 
    ##  5 Torge…         -1.75         0.660            -1.17     -1.07    fema…
    ##  6 Torge…          0.374        2.26             -0.467     0.00756 male 
    ##  7 Biscoe         -1.13         0.608            -1.88     -0.980   fema…
    ##  8 Biscoe         -1.15         0.815            -1.46     -0.733   male 
    ##  9 Biscoe         -1.48         1.07             -0.820    -0.486   fema…
    ## 10 Biscoe         -0.946        0.0398           -1.46     -0.486   male 
    ## # … with 190 more rows, and 1 more variable: species <fct>
…
